[
  {
    "id": 1,
    "title": "Partridge",
    "imgPath": "images/partridge.png",
    "desc": "Partridge, a game bird belonging to the grouse family.",
    "tooltips": [
      {
        "id": 10,
        "x": 0.56,
        "y": 0.59,
        "content": "Jacky"
      },
      {
        "id": 11,
        "x": 0.08,
        "y": 0.8,
        "content": "Sarah"
      },
      {
        "id": 12,
        "x": 0.62,
        "y": 0.46,
        "content": "Mykyta"
      },
      {
        "id": 13,
        "x": 0.76,
        "y": 0.82,
        "content": "Anne-Marie"
      },
      {
        "id": 14,
        "x": 0.54,
        "y": 0.81,
        "content": "Abd Al-Rahman"
      },
      {
        "id": 15,
        "x": 0.39,
        "y": 0.77,
        "content": "Cornelius"
      },
      {
        "id": 16,
        "x": 0.44,
        "y": 0.53,
        "content": "Tobias"
      },
      {
        "id": 17,
        "x": 0.05,
        "y": 0.42,
        "content": "Mindaugas"
      }
    ]
  },
  {
    "id": 2,
    "title": "The Great Seal of South Australia",
    "imgPath": "images/seal_soaustr.png",
    "desc": "Coat of Arms, South Australia.",
    "tooltips": [
      {
        "id": 20,
        "x": 0.77,
        "y": 0.74,
        "content": "A sheaf of wheat"
      },
      {
        "id": 21,
        "x": 0.16,
        "y": 0.2,
        "content": "A sheep"
      },
      {
        "id": 22,
        "x": 0.75,
        "y": 0.19,
        "content": "A ship"
      },
      {
        "id": 23,
        "x": 0.19,
        "y": 0.73,
        "content": "An anchor"
      },
      {
        "id": 24,
        "x": 0.42,
        "y": 0.46,
        "content": "Stylized Southern Cross constellation"
      }
    ]
  },
  {
    "id": 3,
    "title": "Cougar",
    "imgPath": "images/cougar.png",
    "desc": "A large concolorous feline carnivorous quadruped peculiar to America.",
    "tooltips": [
      {
        "id": 30,
        "x": 0.51,
        "y": 0.35,
        "content": "O HAI"
      },
      {
        "id": 31,
        "x": 0.21,
        "y": 0.85,
        "content": "A paw"
      }
    ]
  }
]
